[Lotomania de Pascoa,1444]
1,3,5,6,7,9,10,12,14,15,16,17,23,25,26,28,33,35,37,39,40,45,46,47,48,49,52,53,54,57,62,64,65,66,68,70,71,72,74,77,79,81,83,84,87,88,91,92,94,95
2,4,8,11,13,18,19,20,21,22,24,27,29,30,31,32,34,36,38,41,42,43,44,50,51,55,56,58,59,60,61,63,67,69,73,75,76,78,80,82,85,86,89,90,93,96,97,98,99,100
1,2,4,6,7,8,9,10,11,13,14,15,17,18,19,20,21,22,25,26,28,29,30,31,32,34,36,37,38,39,40,42,43,44,45,47,48,49,50,51,52,53,54,55,56,57,58,59,60,61
